…
# Appliquer les labels à la base 2018
for (var in names(var_labels)) {
  attr(data_welf2018[[var]], "label") <- var_labels[var]
}

# Appliquer les labels à la base 2021
for (var in names(var_labels)) {
  attr(data_welf2021[[var]], "label") <- var_labels[var]
}
3 Fusion des deux bases
# Empiler les deux bases après harmonisation
data_welf_final18_21 <- dplyr::bind_rows(data_welf2018, data_welf2021)
data_welf_final18_21
## # A tibble: 14,276 × 48
##    country  year  hhid grappe menage vague zae        region    milieu  hhweight
##                     
##  1 SEN      2018  1001      1      1     1 11 [Dakar] 1 [DAKAR] 1 [Urb…    1750.
##  2 SEN      2018  1002      1      2     1 11 [Dakar] 1 [DAKAR] 1 [Urb…    1750.
##  3 SEN      2018  1003      1      3     1 11 [Dakar] 1 [DAKAR] 1 [Urb…    1750.
##  4 SEN      2018  2001      2      1     2 11 [Dakar] 1 [DAKAR] 1 [Urb…     266.
##  5 SEN      2018  2002      2      2     2 11 [Dakar] 1 [DAKAR] 1 [Urb…     266.
##  6 SEN      2018  2003      2      3     2 11 [Dakar] 1 [DAKAR] 1 [Urb…     266.
##  7 SEN      2018  2004      2      4     2 11 [Dakar] 1 [DAKAR] 1 [Urb…     266.
##  8 SEN      2018  2005      2      5     2 11 [Dakar] 1 [DAKAR] 1 [Urb…     266.
##  9 SEN      2018  2006      2      6     2 11 [Dakar] 1 [DAKAR] 1 [Urb…     266.
## 10 SEN      2018  2007      2      7     2 11 [Dakar] 1 [DAKAR] 1 [Urb…     266.
## # ℹ 14,266 more rows
## # ℹ 38 more variables: hhsize , eqadu1 , eqadu2 ,
## #   hgender , hage , hmstat , hreligion ,
## #   hnation , halfab , heduc , hdiploma ,
## #   hhandig , hactiv7j , hactiv12m ,
## #   hbranch , hsectins , hcsp , dali ,
## #   dnal , dtot , pcexp , zzae , zref , …
…
